{"hash":"82f238c49b5b7a5422ce3db8df34308c00ceb950","data":{"category":{"title":"Backend","path":"/category/backend/","belongsTo":{"totalCount":5,"pageInfo":{"totalPages":3,"currentPage":3},"edges":[{"node":{"title":"C++函數式🐱紙(C++ functional Programming)","excerpt":"C++的函數式介紹","image":{"type":"image","mimeType":"image/jpeg","src":"/CatSheet/assets/static/qingbao-meng-01_igFr7hd4-unsplash.4250cd3.dcc9fafb1532f74768d34a5075c265b5.jpg","size":{"width":800,"height":477},"sizes":"(max-width: 800px) 100vw, 800px","srcset":["/CatSheet/assets/static/qingbao-meng-01_igFr7hd4-unsplash.1b91758.dcc9fafb1532f74768d34a5075c265b5.jpg 480w","/CatSheet/assets/static/qingbao-meng-01_igFr7hd4-unsplash.4250cd3.dcc9fafb1532f74768d34a5075c265b5.jpg 800w"],"dataUri":"data:image/svg+xml,%3csvg fill='none' viewBox='0 0 800 477' xmlns='http://www.w3.org/2000/svg' xmlns:xlink='http://www.w3.org/1999/xlink'%3e%3cdefs%3e%3cfilter id='__svg-blur-78e5e20c5b6a43017bf737db2285ffaa'%3e%3cfeGaussianBlur in='SourceGraphic' stdDeviation='40'/%3e%3c/filter%3e%3c/defs%3e%3cimage x='0' y='0' filter='url(%23__svg-blur-78e5e20c5b6a43017bf737db2285ffaa)' width='800' height='477' xlink:href='data:image/jpeg%3bbase64%2c/9j/2wBDAAYEBQYFBAYGBQYHBwYIChAKCgkJChQODwwQFxQYGBcUFhYaHSUfGhsjHBYWICwgIyYnKSopGR8tMC0oMCUoKSj/2wBDAQcHBwoIChMKChMoGhYaKCgoKCgoKCgoKCgoKCgoKCgoKCgoKCgoKCgoKCgoKCgoKCgoKCgoKCgoKCgoKCgoKCj/wAARCAAmAEADASIAAhEBAxEB/8QAGgAAAQUBAAAAAAAAAAAAAAAABgADBAUHAv/EAC8QAAIBAwIDBwMEAwAAAAAAAAECAwAEEQUSEyExFCJBUWFxgQYysSVCkaFSYsH/xAAYAQADAQEAAAAAAAAAAAAAAAABAgQDAP/EACYRAAIBAwIFBQEAAAAAAAAAAAABAgMREiGhMUFxwfAEBSIyYYH/2gAMAwEAAhEDEQA/AImkfUcaLmQImBnm43D0C881ZQ6/DcSGS1t1uZiQO6GLMfLB6VkltPCShAfeeq7gvMVcxTvcRNJbtJEB1GQpI9On8VLOFuZEpGjz6y0FzEmouts5YmQMwJB8BgDNSzq0EBtmtbhHQ8z3cg59/Gs3sbOe/tWa4ljSCLGy5mlCbefiDzIoj02PR4rZIdY16PdGdmy1UnHjgswH4I9alrOMdG/4h0wph1scY9lijSYoRxJTuZgf8T0HxXa3HCUu/EUkck3Yzn8/ih3tOjWmey3jXKDJCOQceJJAHP8AFUF19WyXNrNHaCO3tlXOVXDMT5k%2b3SupSy%2biNVJcw2n1NZ24zXCKyNgKMkD5A73xVTe3Fw2TaQStuGOMYSoA/wBc9KHdN%2bqbhjxLm5fhKgDr13DPQ1Kmv47mGSV5ZjbxnKrI2QM%2bfrWrc07NBVr3AWKew4CcCbT55go7s8bRsPnoalC4NxCBNZWJUfaEnbI%2bA2B/FZ9JKkYwGAPkvOn7O%2bgiQ8VZi3mGA/5RdJvXJ%2bdLCqmjQ4OG6n9NhnIXaMzbcDyGXrqeW0Y8Cf6bkimwFWSK4ZQB6kkqaD7a4tZIi7tIUUfZkbj/ACKetzpaxcKc30Zx96hH2%2buMCp50pJ3u9%2b0g4JF%2bbTBkRboQowwMzxSYHkcMPxUe70fVLOxaQwmW1J38aHvr846fNQIoNF2qJdY7ijO3sjhyfXnipC63oFpG0MMmqtnq1vIIgT5nIOa5V6sX8dfzFrfTuDBDVqSsQkd1GTlVNOXGo75%2bAsh4UKFiB%2b5qb7dbcRZHkubqAHIS6jXd7blOabv7rQbnd2axurCXH3RScVc%2beDg/3Va9Twyi/N9jsWgLjKj9vOrHTbE307Rs4RUQuSBnl6DzpUqebsjRMfeSxtpAi2srlDzZpsZPsBU6zk0y5kxLFeRM3ikit/RFKlUde8YOSevURydy4f6OmlspLuwu45IwCSs6FDj3GaA4oSs7cY52nmFNKlWfttepWhJzdw8QgsbhWRWKdR7muZry8kLLFcyoOeAJCMY9qVKrXFPihz//2Q==' /%3e%3c/svg%3e"},"path":"/blog/c-c-functional-programming/","timeToRead":2,"humanTime":"28 Jun 2019","datetime":"2019-06-28T00:00:00.000Z","category":{"id":"Backend","title":"Backend"},"author":[{"id":"author1","name":"Alan Tsui","image":{"type":"image","mimeType":"image/png","src":"/CatSheet/assets/static/author1.6370538.8dd1692a41872507330a722c7ec399b8.png","size":{"width":60,"height":64},"sizes":"(max-width: 60px) 100vw, 60px","srcset":["/CatSheet/assets/static/author1.6370538.8dd1692a41872507330a722c7ec399b8.png 60w"],"dataUri":"data:image/svg+xml,%3csvg fill='none' viewBox='0 0 60 64' xmlns='http://www.w3.org/2000/svg' xmlns:xlink='http://www.w3.org/1999/xlink'%3e%3cdefs%3e%3cfilter id='__svg-blur-1bb70da44d6073cb51a7611c0b2387ad'%3e%3cfeGaussianBlur in='SourceGraphic' stdDeviation='40'/%3e%3c/filter%3e%3c/defs%3e%3cimage x='0' y='0' filter='url(%23__svg-blur-1bb70da44d6073cb51a7611c0b2387ad)' width='60' height='64' xlink:href='data:image/png%3bbase64%2ciVBORw0KGgoAAAANSUhEUgAAAEAAAABECAYAAAAx%2bDPIAAAACXBIWXMAAAsSAAALEgHS3X78AAATcUlEQVR42t1aB1hVx7beYG7yEhMrSLcbFbDE5EaDJragNMWCMdJRUSw0KZZo5BqjsdAEjfo0N%2bWaLyYaAbsxGhUTjYWqoFgBawIKInDarLfWzN6HA5obTAF8%2b/vWN3P2nj2z1r/%2btWbNOUeS/sbLtvPLkr2FCe/bW7YzptaufQcrO2vLVXZWFnkoahQNSj7ei7Vr37694Vh78zbSU331avucMN7KXBhvY%2b1oZ2Ve2tvaAnpZmYO9pRkX6tM9fFZmZ2PlKkAwM5b%2bP1x21lZGwvPtO6CB5WQstioUHQqThfoq%2bVmVnY1NV8N3n17jkdHoyWbCGMvoPsLLKnvhfcV4Rn17GRg%2bxtryfZkFzZ5uAGxsamLf2iJWprmGA0CGixbs5D49E2MskjkAFqZPZxj06GanT37ozWfkdhwZh17Vyl4HBQA9CPist2DAu4bv2lu0k3r27P300F650DA9hTsGfGKELEiX41xraLwMgFY8szhuOB/NYduxi8woa8muQ6emTHkrefvrRgwQ1O/Q0QQ9uQgNO4VG3q9LfwNRwqCMQMB3gu06dm5Bc/RuwY03EoBYNE0QFKVsO3WR7M3aynFv5YEG3SFac7EhMWe9rc2hl7XseTkU6DPeZ31wDImcC4pxjukGO4qYF0FoUpd9p2645/%2bP1P2VofrEhUoG9%2bKGm5PRalsLM22n1iasQ8u20LmNCevS1hS6m5mRx3mLnxk%2bB3zOupmaYi7AhGij1AcW2%2by69Hi2FggGodYE9nrLWjGPSvoIj5tDD7N2WjL61U5WzM/Zli0P7g9frRoGx7e4QnbKGMhNG8vb41vc%2bP2FU15lI1/rzMHoamKqI/CIEQjCvnbXQMkzPBx6duvRBIzv2Kk2PW1sXkavVvZB49EIrUMPG1gzdyAr2D8edOd9Aa74AxT4AVxEueBbI/T5Esplf7j38yRIWePI3N7oAh1amTBMjqq%2bNpYIgmWsvD02s%2b3Zj9ZsAgBYmfP4tzdpbiRTf0/f9hbQsZWJetoYeyg%2b8g4jo1meD1RmekFFhic8zPCCh9ivNBD6TPfpuSrHmwPx4KwX%2b3B2f2ICw1zBKKQwGb5mCHhTCQGF%2bi5921uS8do5Xn2ZLs8XxQcqznpyI6uyvKA621vfGgrd4yL36R0OxBV/9smSwdDNtJ2GQsHe2nIbZ4FZK2M8WEm2Xbo3nuG2HTrzaq9Pa7Hd92lveaibSTt4Z2h3TWWWN6hzvRl51dDAuob/FhDUr5RZAVcDWNL8gQyBpZ2kGtfsppwVepm2aPTDDqdin442/e0s%2bXbGslLGMIxrVpHx2x6vDxAGgDCW78tmjOul6Yq7xyudrKPkmuCZRjXetlN3VEIcWPp2tFrZuY0prF0wSIPxi8Z7sj9qfF0QKD8wDKerBz00r3e1hh7mZjs5AG2eN8JCq1G9z1uAb43Q%2bJ/Hv/UyKaxFYfWlfH1BwJxAyVQXH%2bkANi1Minxc%2b7SQ849RYyY/vrjja93MOrY2ffD16uE8aZH3DQF4UjAe9y7mA6Y778OKDk%2bA/t2smXlz0%2b5NAAAR/xYvmvYf1LM93E6fCJpzPowoqxjzMLP%2bQNQ13PBdAoByAe0sXiN6QnOp9QgZAONGrAEsePy/KLV0m%2bxmR3GqI0Wx5UrzbQyLHmof1mMbVPqVMoBUHOFOAtX4DPJ9OQiYXHWRXq/AC1ILD0MdGvy6kzFf6mUj9v9npBfdl8x4nRTWEQNOfu0CUVPsYP60XvBt0hC%2bp8MFP33R81uMUAoiMpbu71w/DN4L6gVzAmzh6H%2bcmBbnJgDm%2bfUDBH0C/94RdbiLujTo9WtGlFSd7Sk9K7WU48%2bo7wcz/8molEVvs21rhsBnHw2ELavfhJme3SHMtyec3u7KQSDj6npcAYKekddz0kZzAKdPfBk%2bWzEIvlg5CL6MfYtvh/iczfPvh4eCZ/vTys9LLY1V2ZO4Tg12abPH8Xb/Rmc5/oxfSpw3uJioj0rqMFmJ2r6AyllP2LTUASa5dYLVc1%2bDbDROobi%2b%2bpPl/G53WLPwdfAc1QnWLe4P9069y%2beguTD2iR2MQuqb%2bJHlGHhmtPI3cY7NDHVqsOthlj/3/r0zgZ1VuT6nbh%2bfrK3I8Ma9nycrfRWnzkUwrk%2bGvD3uEIsApK4b9ljjKdb3bXobVka9Cqe3Cbbw3JFRq4zm8987NUVXkemfUZkdwHeCyiy/hk2EFZlTJDg3VBKL%2b%2b6D4ilQdGS69mGmDymIygoDyQBS/uwONyg5id68EvCbIUAtMQgKp%2bBBKABUlAQRBIx7g5xB471Y4Q/TtXB1GlTn%2bBzmdUiBFdepwS40mrdlZ6c2R8VKqrN9oODALNwBhIKkaKWczLbGvwUTnDrymL774zsclLpJUBEyNv1LJ1g8uw9ET7WH9TED4OaxCZxFYow3U%2bV4wdWDM9n90/44l1f5/TNTW8k6NVw9gEby9sFZn%2baqbK/S6mw/yN8Tontw1lfPAA4AejB%2b/j9hzHAb8B/bFQoPewDlh8rM2ttgpSh1ISt1FA%2bTY1uceD7YhbtAGoaMpgYADvClA7NYyYlABMbzQdlpv1ayTg0HACrC23un/JurcjxLys9OhnM7Q3WoDHlFHwKk%2bI2jE3gSJKNqDPF6pAZQIzNup78j9n9KfLQjYMIzrAvEe16QtzuE3U4Pwvk8y0tOBrSSdWp4BpScmNwcvVBaejIQclLDdaU/ByBFPWVP1YCgGKR4sS71edKUxyrVo1Iz1IDEvY/jvBmCzYp%2bmCkYcKoRGIBZl7fXjoQ/r871unP3x%2bmQuWOO7tefJjN1jidTjNSXtBlCxH1vHtOaOmIQ53XES38fww0ozM4j264fmg1V2T73KjKnviTr1HAAPMgMlLQ5Hnzr0ZzzXl%2bVFQJnt0eo7xyfSl5hireqDDyH94HYQf1b6RNw1xiH4TGeSzH2b6V78GcUQmJsDRhKXqF7lPxyU8M0d4%2bHw8Msv82kQ%2blPk4xIp4beCo3EUbhtsyvfzTp4ae9cuHl0mlYJAUXoc0WGL9xGcAoPB1EGx2QXCGe2%2b2F16AGnto3F1huyUqYCzgPXDwVh5g9EQ0U%2bqTZgBc7FSk8G6C7uiYD83SEFv56Zyel/49jMhj0RKiFwYW/IP6jN2BExt/jQAvTkdDUxgLZDQXVP%2bOUnLIJ2h1KOgJyUcPIe5O0Mh7xdczBxhsG5tFDep3v0TBl3Li0M56O9XiQ%2bmpPmxqSnvXogGrJTw/dxBxSONkpZH6PXqUGuu2ei%2bIIZ30bwMjQrNXzy5f1RcHFvMFaDPkwjU/hWeiDkpoVxYzBuZQlDQ0Mhe0cotuFcRD%2b09jgEhoC4dmgGJT7K%2bBwM/Kwp%2bn4enhfCPqW1r%2b6Z1Sx9%2bzzUKbqBT4OnF0hndkTwPHBye1S/8zuFoRf2BLMbR6dxqpNHz8tG0TP%2beWcIIHPg1rFQoHE3j03F7S8ECvaFIBNCHgGMGFGwbzaFF1zG/Z/iv/D7aMhMmRMpg9943wtmpETw2Dv29bzmqGhhwd45pLxOUD3cwOsCgBtHA3GL8wP6svSLlQMh3L87hPp2h38vd%2bCHJqzm5JAJqQUCDw0RPrQDsAt75sDpbyMd5PAzLtw/s3EA%2bGlbtFRxJICDgADsIM%2bgghpDwxUDsHpDCntiJegNKyL7wcB%2bpuDoYAGOAy14f2lYX3lLnMRjP0cGsHb4hGICDCeW3DmxLbo1rYtMMPpq84eNA8BnGz%2bSSr4PFHkgZc4nNw7PJYU1hl7nNEbvXTkYhAWRL5zY6gpv9DWBoQPMhfQ3h2HY9u9jgtWiMx9zK31KLQadqwkj3eV9EZQA83Z9EfMCrfvz9qjG%2b07w2NfzpbsHA41lBnxVdCiaA4DClJygNwDjW53rjzX%2bKEh%2bvz98suwNlAFc/r38DViL97LTRuH5wQcu7Zfzh5w0FSEAKMwwAV7/advcFiIM5zQeAEe3zpduHAhSAPiy%2bJDCAEXpGu%2bRR3kYZNMPoL4YCgFQfiYIyk7PQGDwCHzJl75QhaIfpuuNP2cAAIGqAIAhcBVD4CUlBBoNAI/52yRU6hk5BJYVYwhQDlAY8CgIYTzTX8VwOL8rGLK%2bDYOsHbT3h/IQubh3tp763Pi0sLoM0F77Loryw1HDPNSoF1KQ54CzOyLGX94fyROV7C0RBnVAoJYSXO09P0yuCWo8X/O8hgEELrEMc8A6WjN/V8gzqZ/HNJ7xWzYvI8ONZE90QGpW5u3S01XPgrogGCa3R%2b7R2LTQR4yXAcAqMApwTU9D8Bv1OvFNtASnx/I%2bZvsjhQejyQiRB%2bpQ%2bA9JmhCcU3dhN68vKn7cNtdSZp3RD1vnNy4AByWQznwfwj1x8kDYxIKDEXA%2bNUxHZ/bzeg//WeP5XNprh6IgY0/YRlrr0olpxsc/X9A0/iBxP2AF3wkejk4afHkD1un7gwkE9rhE9qQAyHOw3L0h2sKUeXAjahmnf1HM4sal/zm/D6UL0hBJ7bGO54BfAteZsJEJhTAmAQo%2bjdLl7gkhEPTZ/ImZkGbwLrU7wnWqySsB3k4oKglM4v%2bTU3usNbpGuvgsbTjDS6M%2blqqcVoufxWdvlkocl/P/xOvck6aC%2b8cAw%2bI1Dz1XQO5OTFq7UPGUWlT%2b72AYjOGSKiT7u2C4G7EEYHCCBtzXg2500mz%2blZzjsufYjP8VR3THVVy3v5fqQRsk6C7Q1ngk6X%2bMmL8k%2bLky5xW7wHUtMOdYDYLAfgn/gOUgADn78WCzu2a7O1dnS1RqhbrG0zu5eELMPhAChSsWMjYijjGnWC24JkO584oDse%2bFvaCsrxm/husCbd6Xyqeu/3uM14xKlEDu60bGNhPfBoFU4BITljN47u2bQ2IAnOJ0bGQsoKIMQYAHvh/B9dXvQf6WSH7MzU0z3OIeL/zYjMbnb42AK2vnQ%2bmspQCOcQAjOQB8jVtDYwDXvFvgvDgSdeAhyBxX63OC1i3hL/Z84AZ9X%2bcSxyu/Mu/kl8E98YQOlcobiBXgoLm6KscVqGA8QxAYMgFgeDwX3Yg4uBe6FC4cCIZcOtbK3wzVEryXswOrQPT6nQX/Ao1LrDAcgQQnGVSnOFY9YiXk4VrncU10BKAOp8u9kmw5CC5xehDKgv6icKictFaCDouE8a7CeJXHmuE61/gH4JJMHlHfGBKjy3SIhGtvLeRKogBngrMQIEWHJEDVuki4m%2bMLhd8HQcHeYLiA536SiyjXvpsJt7L8oWI9OnVIIgCCRh7ncwjPk7DrgxcxWqt4yGIdrU066Fziq9RjE104CM5CR5Bmc93/3Lc%2bizZLOrd4kfBk2mtGJ45gSENwTiTF1IpiSEuW5RDJCge/ryiLypMRsiEj47hoNkRAdZ4nVF98F6rzJwnhfU/QbAoHcBbj%2bDvyHGK%2beCga8j7QGhhunGUg5laDcwIfoxmd4MZ1dRS64rt/8utvf5FQNGMS%2bIRV7yYPwBDQgFMCKaeRPS17PR7K3l4G%2bYPmwZW3FoLKEbesoauQxrE1IJBXhyaAJmgpqNYjEKkzoDptBqgQFM3MD4ANSxBjZONhRCyfQ41zXR28kM99f/gyDgatWQMC6YKh5oIh8m7Sm4Y6l0/e8MeML58mjK/0TOZJpjR0YxtkQyE4r3nEeE53ojkpgcrfHRwDV5z%2bBbejPgO1e6IwRCiNHiajEnhIwDBZqE/39FSP52GDHoU70Z/DFeclcAfn1DmJeWrWqwMC6oaheev%2bzPXtuMMmJRv9if1%2brVQQnybBgGXiBxD3hM/A7WNaSC0vqI91fcxTnyiLXteOS4Kb14ugODUdyt6IgaqRq0A7crUcGrGPFXpGY6qcVuE7i6H4myNws/gGaCYk8zlFeMTWWrOWLqQb6oi6fsVD4ZUPjDO2HkZb1j2Z8beWi%2bJCNSHRWFA/aRC4JpJXdHwxGXV9rBsqReK4GtjYZKi6UwpVmVdBM/BDqEajVJjB1SNWgQaNJEPpHcrk9JmEntEYGqtxWApVPxdAVUkZMA%2bsL95eJcKiznp6oZ1H6KYD1ySonpg0XCTsxCf/8wRIi6RrmzdJ0GU5f1nrnpDKixyF%2bjLidUXUAMQAAiAJKm7/CpWnCgDe/AjAJQEe985jhcYOWg6VP%2bZDxa/3OAAgA/CI4craNSzQkK5a9/i93JaWS4wub9n8hD98LNgkqd4RyFX6JvXE5KKGkWKR3zLeQBEDAEqg8vQlBGA5MJea2P1dwbEwcBkCcOERAH5nbZkFcZQQdZXeSX0UJpNNT3RhwuNZVD0%2bMYriCqmlqY/3/hsA9WXAHwXAIBw0pLN6XOIieTt8spNjYfynEvSS6T8qfr9Mf23d2G%2bSAIhcwM8MWrf4H3gYdPjAiGyq/z/AfMX2UTJnY0uk0hVR9MTpfo/%2bTQEAOQx4oYa6F92ftb6toU31upTsX%2b25pgeWv9VK/DdoCAxCAI5jEvylVAZgdb1DQJ8HXOM01ZPW9Da0qV6XWt46qieuGQCjk4lW2gYHgBhw6hJUlD8ANmGdYIDzkwCAR2f3taCamDhYtqn%2beQAPFyL%2bXeMdwG2tAgA0KAD4jmrLcajEWoAbrmyx9dWBJ8J1VBkOlW2qPwD4srHcOlAyqW8C/MsAEAbwElo5E%2bjv1T8R8noA%2b0MND3P1uvBlY7l1kCdp0BBQvM0M%2bk/IAKYwAPtDZVseC8D/AV3ZB5bgY9sGAAAAAElFTkSuQmCC' /%3e%3c/svg%3e"},"path":"/author/alan-tsui/"}]}}]}}},"context":{}}